549
634
368
84
62
919
273
286
361
355
421
279
13
183
369
785
595
224
553
676
957
479
619
589
177
644
607
635
851
483
164
249
614
855
909
376
413
75
114
550
782
391
105
115
418
437
410
93
545
90
337
956
890
902
586
880
591
95
12
397
514
44
43
330
168
796
846
775
875
101
427
179
445
417
627
852
637
178
396
654
803
661
384
258
519
336
594
16
4
524
257
526
732
750
491
394
223
180
290
719
325
571
10
250
23
357
222
645
916
951
569
341
432
532
869
559
204
722
500
446
238
94
592
539
69
602
285
891
435
154
76
707
447
189
272
237
488
118
790
513
534
668
127
117
474
670
58
741
881
370
269
47
350
196
967
941
711
264
444
653
305
342
935
150
125
760
51
354
896
143
471
400
605
321
20
781
854
823
408
538
600
39
176
246
800
771
817
829
155
288
583
570
717
18
128
323
256
636
933
191
116
596
181
302
733
689
924
947
681
518
952
46
878
158
718
172
17
512
49
939
812
516
663
481
284
695
755
226
27
756
438
920
365
230
38
934
375
470
936
879
870
195
825
835
504
938
802
580
937
163
679
153
658
753
729
112
227
665
104
422
420
724
587
754
120
54
152
404
914
208
815
736
9
779
37
453
652
254
304
860
572
624
686
696
263
611
298
415
151
762
641
858
551
765
489
148
147
697
900
714
660
349
464
326
187
124
824
609
144
927
198
610
280
294
401
123
184
203
439
247
416
811
742
931
130
638
403
758
744
882
220
642
884
847
778
888
625
810
789
387
940
510
268
791
442
497
113
692
233
840
608
672
374
949
814
234
759
677
318
649
411
867
710
359
259
745
628
633
283
377
385
225
922
786
473
348
506
640
955
897
874
620
826
646
818
557
926
578
86
243
699
160
525
36
541
171
655
859
828
912
913
734
96
564
241
743
575
691
461
554
848
207
393
795
398
767
820
218
5
769
643
866
613
739
547
726
684
99
805
728
574
407
503
48
33
780
201
135
28
850
231
490
773
379
289
419
675
392
593
499
139
63
472
648
129
944
521
839
65
813
15
157
41
493
380
188
764
217
792
53
338
749
720
725
296
702
252
727
462
456
964
816
863
270
202
162
556
730
402
703
477
822
772
106
566
390
2
906
950
562
81
206
35
776
509
428
455
367
92
340
898
565
346
777
242
14
316
601
388
274
167
841
960
647
819
485
948
505
832
244
567
876
563
687
190
783
700
476
682
511
59
475
561
857
748
253
22
314
460
161
277
192
386
806
414
492
344
770
309
662
131
664
872
100
373
88
459
331
215
467
122
615
21
701
72
107
271
861
436
103
